src/tb.vcd
$date
	Sat Jun  6 08:10:55 2026
$end
$version
	Icarus Verilog
$end
$timescale
	1ps
$end
$scope module tb_memory_scheduler $end
$var wire 2 ! warp_id_to_ws [1:0] $end
$var wire 16 " sw_word_mask [15:0] $end
$var wire 1 # stall $end
$var wire 1 $ mem_write $end
$var wire 1 % mem_done $end
$var wire 2 & lw_warp_id [1:0] $end
$var wire 1 ' lw_ready $end
$var wire 4 ( lw_destination_out [3:0] $end
$var wire 16 ) addr_out [15:0] $end
$var parameter 32 * LINE_WORDS $end
$var parameter 32 + OFFSET_BITS $end
$var parameter 4 , REQ_LOAD $end
$var parameter 4 - REQ_STORE $end
$var parameter 3 . S_WAIT $end
$var reg 16 / BASE [15:0] $end
$var reg 16 0 BASEA [15:0] $end
$var reg 16 1 BASEB [15:0] $end
$var reg 16 2 active_mask [15:0] $end
$var reg 1 3 clk $end
$var reg 4 4 lw_destination [3:0] $end
$var reg 1 5 mem_req $end
$var reg 640 6 msg [639:0] $end
$var reg 3 7 prev_state [2:0] $end
$var reg 4 8 request [3:0] $end
$var reg 1 9 reset $end
$var reg 2 : warp_id_from_ws [1:0] $end
$var integer 32 ; L [31:0] $end
$var integer 32 < a [31:0] $end
$var integer 32 = actual_txn [31:0] $end
$var integer 32 > base_txn [31:0] $end
$var integer 32 ? checks [31:0] $end
$var integer 32 @ errors [31:0] $end
$var integer 32 A proto_errors [31:0] $end
$var integer 32 B txn_count [31:0] $end
$scope function mem_init $end
$var reg 16 C a [15:0] $end
$upscope $end
$scope module dut $end
$var wire 16 D active_mask [15:0] $end
$var wire 1 3 clk $end
$var wire 4 E lw_destination [3:0] $end
$var wire 1 5 mem_req $end
$var wire 4 F request [3:0] $end
$var wire 1 9 reset $end
$var wire 1 # stall $end
$var wire 2 G warp_id_from_ws [1:0] $end
$var parameter 3 H CAPTURE $end
$var parameter 3 I DONE $end
$var parameter 3 J IDLE $end
$var parameter 32 K LINE_WORDS $end
$var parameter 32 L OFFSET_BITS $end
$var parameter 3 M REQ $end
$var parameter 3 N REQ_CHECK $end
$var parameter 3 O WAIT $end
$var parameter 3 P WARP $end
$var reg 16 Q addr_out [15:0] $end
$var reg 16 R block_members [15:0] $end
$var reg 2 S current_warp_in_ms [1:0] $end
$var reg 16 T lane_serviced [15:0] $end
$var reg 4 U lw_destination_out [3:0] $end
$var reg 1 ' lw_ready $end
$var reg 2 V lw_warp_id [1:0] $end
$var reg 1 % mem_done $end
$var reg 1 $ mem_write $end
$var reg 2 W queue_pointer [1:0] $end
$var reg 1 X request_reg $end
$var reg 3 Y state_curr [2:0] $end
$var reg 16 Z sw_word_mask [15:0] $end
$var reg 2 [ warp_id_to_ws [1:0] $end
$var integer 32 \ i [31:0] $end
$var integer 32 ] j [31:0] $end
$scope begin $unm_blk_13 $end
$var reg 1 ^ found $end
$upscope $end
$scope begin $unm_blk_17 $end
$var reg 1 _ found_warp $end
$upscope $end
$scope begin $unm_blk_21 $end
$var reg 1 ` found $end
$upscope $end
$scope begin $unm_blk_26 $end
$var reg 1 a found $end
$upscope $end
$scope begin $unm_blk_41 $end
$var integer 32 b l [31:0] $end
$upscope $end
$scope begin $unm_blk_7 $end
$var reg 1 c found $end
$upscope $end
$scope begin coalesce $end
$var reg 1 d found_leader $end
$var reg 16 e members [15:0] $end
$var reg 12 f target_seg [11:0] $end
$var reg 16 g wmask [15:0] $end
$var integer 32 h l [31:0] $end
$var integer 32 i leader [31:0] $end
$upscope $end
$upscope $end
$scope module u_mem $end
$var wire 16 j addr_out [15:0] $end
$var wire 16 k base [15:0] $end
$var wire 1 3 clk $end
$var wire 1 $ mem_write $end
$var wire 16 l sw_word_mask [15:0] $end
$var parameter 32 m LINE_WORDS $end
$var parameter 48 n MEM_WORDS $end
$var parameter 32 o OFFSET_BITS $end
$var integer 32 p k [31:0] $end
$upscope $end
$scope task check $end
$var reg 1 q cond $end
$var reg 640 r m [639:0] $end
$upscope $end
$scope task do_reset $end
$var integer 32 s k [31:0] $end
$upscope $end
$scope task fire $end
$var reg 4 t dest [3:0] $end
$var reg 1 u is_load $end
$var reg 2 v wid [1:0] $end
$upscope $end
$scope task wait_done $end
$upscope $end
$upscope $end
$enddefinitions $end
$comment Show the parameter values. $end
$dumpall
b100 o
b10000000000000000 n
b10000 m
b1 P
b100 O
b10 N
b11 M
b100 L
b10000 K
b0 J
b110 I
b101 H
b100 .
b101 -
b110 ,
b100 +
b10000 *
$end
#0
$dumpvars
bx v
xu
bx t
b10000 s
bx r
xq
bx p
bx l
bx0000 k
bx j
bx i
bx h
bx g
bx f
bx e
xd
xc
bx b
xa
x`
x_
x^
bx ]
bx \
bx [
bx Z
bx Y
xX
bx W
bx V
bx U
bx T
bx S
bx R
bx Q
b0 G
b0 F
b0 E
b0 D
b1111111111111111 C
b0 B
b0 A
b0 @
b0 ?
bx >
bx =
b10000000000000000 <
bx ;
b0 :
19
b0 8
b0 7
bx 6
05
b0 4
03
b0 2
bx 1
bx 0
bx /
bx )
bx (
x'
bx &
x%
x$
x#
bx "
bx !
$end
#5000
0#
b0 k
b0 "
b0 Z
b0 l
b0 R
b0 T
b0 (
b0 U
b0 W
b0 S
b0 !
b0 [
0%
0'
b0 &
b0 V
0X
0$
b0 )
b0 Q
b0 j
b0 Y
b10000 ]
b100 \
b10000 p
13
#10000
03
#15000
b10000 p
b10000 ]
b100 \
13
#20000
03
#25000
b10000 ]
b100 \
b10000 p
13
#30000
09
03
#35000
b10000 p
13
#40000
b101 t
b0 v
1u
b0 >
b100001111 C
b10000 ;
b1111111111111111 2
b1111111111111111 D
b100000000 /
03
#45000
b10000 p
13
#50000
1#
15
b101 4
b101 E
b110 8
b110 F
03
#55000
0#
b1 Y
b10000 ]
b100 \
1c
b10000 p
13
#60000
b0 8
b0 F
05
03
#65000
b10 Y
1X
b1 7
b100 \
1_
b10000 p
13
#70000
03
#75000
1#
b10 7
b11 Y
b10000 p
13
#80000
03
#85000
b100000000 k
b100 Y
b1111111111111111 T
b1111111111111111 R
b100000000 )
b100000000 Q
b100000000 j
b11 7
b0 g
b1111111111111111 e
b10000 f
b10000 h
b0 i
1d
b10000 p
13
#90000
03
#95000
b100 7
b1 B
b101 Y
b10000 p
13
#100000
03
#105000
1#
b11 Y
b101 7
b10000 b
b10000 p
13
#110000
03
#115000
0#
1'
b101 (
b101 U
b110 Y
b11 7
b10000 h
0d
b10000 p
13
#120000
03
#125000
b110 7
b0 Y
1%
b10000 p
13
#130000
03
#135000
b0 k
0'
0%
b0 )
b0 Q
b0 j
b0 7
b10100 ?
b110110001110111010111110110010001100101011100110111010001101001011011100110000101110100011010010110111101101110010111110110111101110101011101000010000000111101001000000011000001111000001101010010000000101000011001010111100001110000001000000011010100101001 r
1q
b110110001110111010111110110010001100101011100110111010001101001011011100110000101110100011010010110111101101110010111110110111101110101011101000010000000111101001000000011000001111000001101010010000000101000011001010111100001110000001000000011010100101001 6
b10000 ;
b1 =
b10000 p
13
#140000
03
#145000
b10000 p
13
#150000
b110 t
b1 v
b1 >
b11110011 C
b10000 ;
03
#155000
b10000 p
13
#160000
1#
15
b110 4
b110 E
b1 :
b1 G
b110 8
b110 F
03
#165000
0#
b1 Y
b0 T
b10000 ]
b100 \
1c
b10000 p
13
#170000
b0 8
b0 F
05
03
#175000
b10 Y
b1 S
b1 7
b100 \
1_
b10000 p
13
#180000
03
#185000
1#
b10 7
b11 Y
b10000 p
13
#190000
03
#195000
b100 Y
b1 T
b1 R
b11 7
b1 e
b0 f
1d
b10000 h
b10000 p
13
#200000
03
#205000
b100 7
b10 B
b101 Y
b10000 p
13
#210000
03
#215000
1#
b11 Y
b101 7
b10000 b
b10000 p
13
#220000
03
#225000
b10000 k
b100 Y
b11 T
b10 R
b10000 )
b10000 Q
b10000 j
b11 7
b10 e
b1 f
b1 i
b10000 h
1d
b10000 p
13
#230000
03
#235000
b100 7
b11 B
b101 Y
b10000 p
13
#240000
03
#245000
1#
b11 Y
b101 7
b10000 b
b10000 p
13
#250000
03
#255000
b100000 k
b100 Y
b111 T
b100 R
b100000 )
b100000 Q
b100000 j
b11 7
b100 e
b10 f
b10000 h
b10 i
1d
b10000 p
13
#260000
03
#265000
b100 7
b100 B
b101 Y
b10000 p
13
#270000
03
#275000
1#
b11 Y
b101 7
b10000 b
b10000 p
13
#280000
03
#285000
b110000 k
b100 Y
b1111 T
b1000 R
b110000 )
b110000 Q
b110000 j
b11 7
b1000 e
b11 f
b10000 h
b11 i
1d
b10000 p
13
#290000
03
#295000
b100 7
b101 B
b101 Y
b10000 p
13
#300000
03
#305000
1#
b11 Y
b101 7
b10000 b
b10000 p
13
#310000
03
#315000
b1000000 k
b100 Y
b11111 T
b10000 R
b1000000 )
b1000000 Q
b1000000 j
b11 7
b10000 e
b100 f
b10000 h
b100 i
1d
b10000 p
13
#320000
03
#325000
b100 7
b110 B
b101 Y
b10000 p
13
#330000
03
#335000
1#
b11 Y
b101 7
b10000 b
b10000 p
13
#340000
03
#345000
b1010000 k
b100 Y
b111111 T
b100000 R
b1010000 )
b1010000 Q
b1010000 j
b11 7
b100000 e
b101 f
b10000 h
b101 i
1d
b10000 p
13
#350000
03
#355000
b100 7
b111 B
b101 Y
b10000 p
13
#360000
03
#365000
1#
b11 Y
b101 7
b10000 b
b10000 p
13
#370000
03
#375000
b1100000 k
b100 Y
b1111111 T
b1000000 R
b1100000 )
b1100000 Q
b1100000 j
b11 7
b1000000 e
b110 f
b10000 h
b110 i
1d
b10000 p
13
#380000
03
#385000
b100 7
b1000 B
b101 Y
b10000 p
13
#390000
03
#395000
1#
b11 Y
b101 7
b10000 b
b10000 p
13
#400000
03
#405000
b1110000 k
b100 Y
b11111111 T
b10000000 R
b1110000 )
b1110000 Q
b1110000 j
b11 7
b10000000 e
b111 f
b10000 h
b111 i
1d
b10000 p
13
#410000
03
#415000
b100 7
b1001 B
b101 Y
b10000 p
13
#420000
03
#425000
1#
b11 Y
b101 7
b10000 b
b10000 p
13
#430000
03
#435000
b10000000 k
b100 Y
b111111111 T
b100000000 R
b10000000 )
b10000000 Q
b10000000 j
b11 7
b100000000 e
b1000 f
b10000 h
b1000 i
1d
b10000 p
13
#440000
03
#445000
b100 7
b1010 B
b101 Y
b10000 p
13
#450000
03
#455000
1#
b11 Y
b101 7
b10000 b
b10000 p
13
#460000
03
#465000
b10010000 k
b100 Y
b1111111111 T
b1000000000 R
b10010000 )
b10010000 Q
b10010000 j
b11 7
b1000000000 e
b1001 f
b10000 h
b1001 i
1d
b10000 p
13
#470000
03
#475000
b100 7
b1011 B
b101 Y
b10000 p
13
#480000
03
#485000
1#
b11 Y
b101 7
b10000 b
b10000 p
13
#490000
03
#495000
b10100000 k
b100 Y
b11111111111 T
b10000000000 R
b10100000 )
b10100000 Q
b10100000 j
b11 7
b10000000000 e
b1010 f
b10000 h
b1010 i
1d
b10000 p
13
#500000
03
#505000
b100 7
b1100 B
b101 Y
b10000 p
13
#510000
03
#515000
1#
b11 Y
b101 7
b10000 b
b10000 p
13
#520000
03
#525000
b10110000 k
b100 Y
b111111111111 T
b100000000000 R
b10110000 )
b10110000 Q
b10110000 j
b11 7
b100000000000 e
b1011 f
b10000 h
b1011 i
1d
b10000 p
13
#530000
03
#535000
b100 7
b1101 B
b101 Y
b10000 p
13
#540000
03
#545000
1#
b11 Y
b101 7
b10000 b
b10000 p
13
#550000
03
#555000
b11000000 k
b100 Y
b1111111111111 T
b1000000000000 R
b11000000 )
b11000000 Q
b11000000 j
b11 7
b1000000000000 e
b1100 f
b10000 h
b1100 i
1d
b10000 p
13
#560000
03
#565000
b100 7
b1110 B
b101 Y
b10000 p
13
#570000
03
#575000
1#
b11 Y
b101 7
b10000 b
b10000 p
13
#580000
03
#585000
b11010000 k
b100 Y
b11111111111111 T
b10000000000000 R
b11010000 )
b11010000 Q
b11010000 j
b11 7
b10000000000000 e
b1101 f
b10000 h
b1101 i
1d
b10000 p
13
#590000
03
#595000
b100 7
b1111 B
b101 Y
b10000 p
13
#600000
03
#605000
1#
b11 Y
b101 7
b10000 b
b10000 p
13
#610000
03
#615000
b11100000 k
b100 Y
b111111111111111 T
b100000000000000 R
b11100000 )
b11100000 Q
b11100000 j
b11 7
b100000000000000 e
b1110 f
b10000 h
b1110 i
1d
b10000 p
13
#620000
03
#625000
b100 7
b10000 B
b101 Y
b10000 p
13
#630000
03
#635000
1#
b11 Y
b101 7
b10000 b
b10000 p
13
#640000
03
#645000
b11110000 k
b100 Y
b1111111111111111 T
b1000000000000000 R
b11110000 )
b11110000 Q
b11110000 j
b11 7
b1000000000000000 e
b1111 f
b10000 h
b1111 i
1d
b10000 p
13
#650000
03
#655000
b100 7
b10001 B
b101 Y
b10000 p
13
#660000
03
#665000
1#
b11 Y
b101 7
b10000 b
b10000 p
13
#670000
03
#675000
0#
b1 &
b1 V
1'
b110 (
b110 U
b110 Y
b11 7
b10000 h
b0 i
0d
b10000 p
13
#680000
03
#685000
b110 7
b1 !
b1 [
b0 Y
1%
b10000 p
13
#690000
03
#695000
b0 k
0'
0%
b0 )
b0 Q
b0 j
b0 7
b100110 ?
b1101100011101110101111101110111011000010111001001110000010111110110100101100100001000000011110100100000001100010010000000101000011001010111100001110000001000000011000100101001 r
b1101100011101110101111101110111011000010111001001110000010111110110100101100100001000000011110100100000001100010010000000101000011001010111100001110000001000000011000100101001 6
b10000 ;
b10000 =
b10000 p
13
#700000
03
#705000
b10000 p
13
#710000
b111 t
b10 v
b10001 >
b11000001111 C
b111100001111 2
b111100001111 D
b11000000000 /
b10000 ;
03
#715000
b10000 p
13
#720000
1#
15
b111 4
b111 E
b10 :
b10 G
b110 8
b110 F
03
#725000
0#
b1 Y
b0 T
b10000 ]
b100 \
1c
b10000 p
13
#730000
b0 8
b0 F
05
03
#735000
b10 Y
b10 S
b1 7
b100 \
1_
b10000 p
13
#740000
03
#745000
1#
b10 7
b11 Y
b10000 p
13
#750000
03
#755000
b11000000000 k
b100 Y
b111100001111 T
b111100001111 R
b11000000000 )
b11000000000 Q
b11000000000 j
b11 7
b111100001111 e
b1100000 f
1d
b10000 h
b10000 p
13
#760000
03
#765000
b100 7
b10010 B
b101 Y
b10000 p
13
#770000
03
#775000
1#
b11 Y
b101 7
b10000 b
b10000 p
13
#780000
03
#785000
0#
b10 &
b10 V
1'
b111 (
b111 U
b110 Y
b11 7
b10000 h
0d
b10000 p
13
#790000
03
#795000
b110 7
b10 !
b10 [
b0 Y
1%
b10000 p
13
#800000
03
#805000
b0 k
0'
0%
b0 )
b0 Q
b0 j
b0 7
b110111 ?
b111010001110010011000010110111001110011011000010110001101110100011010010110111101101110011100110010000000111101001000000011000100100000001010000110010101111000011100000110010101100011011101000110010101100100001000000011000100101001 r
b111010001110010011000010110111001110011011000010110001101110100011010010110111101101110011100110010000000111101001000000011000100100000001010000110010101111000011100000110010101100011011101000110010101100100001000000011000100101001 6
b10000 ;
b1 =
b10000 p
13
#810000
03
#815000
b10000 p
13
#820000
b10 t
b11 v
b10010 >
b1100000111 C
b10000 ;
b1111111111111111 2
b1111111111111111 D
b1100000000 1
b1000000000 0
03
#825000
b10000 p
13
#830000
1#
15
b10 4
b10 E
b11 :
b11 G
b110 8
b110 F
03
#835000
0#
b1 Y
b0 T
b10000 ]
b100 \
1c
b10000 p
13
#840000
b0 8
b0 F
05
03
#845000
b10 Y
b11 S
b1 7
b100 \
1_
b10000 p
13
#850000
03
#855000
1#
b10 7
b11 Y
b10000 p
13
#860000
03
#865000
b1000000000 k
b100 Y
b11111111 T
b11111111 R
b1000000000 )
b1000000000 Q
b1000000000 j
b11 7
b11111111 e
b100000 f
1d
b10000 h
b10000 p
13
#870000
03
#875000
b100 7
b10011 B
b101 Y
b10000 p
13
#880000
03
#885000
1#
b11 Y
b101 7
b10000 b
b10000 p
13
#890000
03
#895000
b1100000000 k
b100 Y
b1111111111111111 T
b1111111100000000 R
b1100000000 )
b1100000000 Q
b1100000000 j
b11 7
b1111111100000000 e
b110000 f
b1000 i
b10000 h
1d
b10000 p
13
#900000
03
#905000
b100 7
b10100 B
b101 Y
b10000 p
13
#910000
03
#915000
1#
b11 Y
b101 7
b10000 b
b10000 p
13
#920000
03
#925000
0#
b11 &
b11 V
1'
b10 (
b10 U
b110 Y
b11 7
b10000 h
b0 i
0d
b10000 p
13
#930000
03
#935000
b110 7
b11 !
b11 [
b0 Y
1%
b10000 p
13
#940000
03
#945000
b0 k
0'
0%
b0 )
b0 Q
b0 j
b0 7
b1001000 ?
b111010001110010011000010110111001110011011000010110001101110100011010010110111101101110011100110010000000111101001000000011001000100000001010000110010101111000011100000110010101100011011101000110010101100100001000000011001000101001 r
b111010001110010011000010110111001110011011000010110001101110100011010010110111101101110011100110010000000111101001000000011001000100000001010000110010101111000011100000110010101100011011101000110010101100100001000000011001000101001 6
b10000 ;
b10 =
b10000 p
13
#950000
03
#955000
b10000 p
13
#960000
b0 t
b0 v
0u
b10100 >
b10000 ;
b10000000000 /
03
#965000
b10000 p
13
#970000
1#
15
b0 4
b0 E
b0 :
b0 G
b101 8
b101 F
03
#975000
0#
b1 Y
b0 T
b10000 ]
b100 \
1c
b10000 p
13
#980000
b0 8
b0 F
05
03
#985000
b10 Y
0X
b0 S
b1 7
b100 \
1_
b10000 p
13
#990000
03
#995000
1#
b10 7
b11 Y
b10000 p
13
#1000000
03
#1005000
b10000000000 k
b100 Y
b1111111111111111 "
b1111111111111111 Z
b1111111111111111 l
1$
b1111111111111111 T
b1111111111111111 R
b10000000000 )
b10000000000 Q
b10000000000 j
b11 7
b1111111111111111 g
b1111111111111111 e
b1000000 f
1d
b10000 h
b10000 p
13
#1010000
03
#1015000
b100 7
b10101 B
b101 Y
b10000 p
13
#1020000
03
#1025000
1#
b11 Y
0$
b101 7
b10000 p
13
#1030000
03
#1035000
0#
b110 Y
b11 7
b10000 h
0d
b10000 p
13
#1040000
03
#1045000
b110 7
b0 !
b0 [
b0 Y
1%
b10000 p
13
#1050000
03
#1055000
b0 k
0%
b0 "
b0 Z
b0 l
b0 )
b0 Q
b0 j
b0 7
b1001001 ?
b111001101110100011011110111001001100101001000000111010001110010011000010110111001110011011000010110001101110100011010010110111101101110011100110010000000111101001000000011000100100000001010000110010101111000011100000110010101100011011101000110010101100100001000000011000100101001 r
b111001101110100011011110111001001100101001000000111010001110010011000010110111001110011011000010110001101110100011010010110111101101110011100110010000000111101001000000011000100100000001010000110010101111000011100000110010101100011011101000110010101100100001000000011000100101001 6
b1 =
b10000 p
13
#1060000
03
#1065000
b10000 p
13
#1070000
b1 t
1u
b10000 ;
03
#1075000
b10000 p
13
#1080000
1#
15
b1 4
b1 E
b110 8
b110 F
03
#1085000
0#
b1 Y
b0 T
b10000 ]
b100 \
1c
b10000 p
13
#1090000
b0 8
b0 F
05
03
#1095000
b10 Y
1X
b1 7
b100 \
1_
b10000 p
13
#1100000
03
#1105000
1#
b10 7
b11 Y
b10000 p
13
#1110000
03
#1115000
b10000000000 k
b100 Y
b1111111111111111 T
b10000000000 )
b10000000000 Q
b10000000000 j
b11 7
b0 g
b1111111111111111 e
1d
b10000 h
b10000 p
13
#1120000
03
#1125000
b100 7
b10110 B
b101 Y
b10000 p
13
#1130000
03
#1135000
1#
b11 Y
b101 7
b10000 b
b10000 p
13
#1140000
03
#1145000
0#
b0 &
b0 V
1'
b1 (
b1 U
b110 Y
b11 7
b10000 h
0d
b10000 p
13
#1150000
03
#1155000
b110 7
b0 Y
1%
b10000 p
13
#1160000
03
#1165000
b0 k
0'
0%
b0 )
b0 Q
b0 j
b0 7
b1011001 ?
b11011000110111101100001011001000110010101100100001011010110001001100001011000110110101100100000011011000110000101101110011001010010000000110001001101010010000000100000011011000111011101011111011011110111010101110100001111010011000001111000011001000011000000110000011001100010000001100101011110000111000000111101001100000111100001100100001100000011000001100110 r
b11011000110111101100001011001000110010101100100001011010110001001100001011000110110101100100000011011000110000101101110011001010010000000110001001101010010000000100000011011000111011101011111011011110111010101110100001111010011000001111000011001000011000000110000011001100010000001100101011110000111000000111101001100000111100001100100001100000011000001100110 6
b10000 ;
b10000 p
13
#1170000
03
#1175000
b10000 p
13
#1180000
b0 t
b1 v
0u
b10000 ;
b11111111 2
b11111111 D
b10100000000 /
03
#1185000
b10000 p
13
#1190000
1#
15
b0 4
b0 E
b1 :
b1 G
b101 8
b101 F
03
#1195000
0#
b1 Y
b0 T
b10000 ]
b100 \
1c
b10000 p
13
#1200000
b0 8
b0 F
05
03
#1205000
b10 Y
0X
b1 S
b1 7
b100 \
1_
b10000 p
13
#1210000
03
#1215000
1#
b10 7
b11 Y
b10000 p
13
#1220000
03
#1225000
b10100000000 k
b100 Y
b11111111 "
b11111111 Z
b11111111 l
1$
b11111111 T
b11111111 R
b10100000000 )
b10100000000 Q
b10100000000 j
b11 7
b11111111 g
b11111111 e
b1010000 f
1d
b10000 h
b10000 p
13
#1230000
03
#1235000
b100 7
b10111 B
b101 Y
b10000 p
13
#1240000
03
#1245000
1#
b11 Y
0$
b101 7
b10000 p
13
#1250000
03
#1255000
0#
b110 Y
b11 7
b10000 h
0d
b10000 p
13
#1260000
03
#1265000
b110 7
b1 !
b1 [
b0 Y
1%
b10000 p
13
#1270000
03
#1275000
b0 k
0%
b0 "
b0 Z
b0 l
b0 )
b0 Q
b0 j
b0 7
b10000 p
13
#1280000
03
#1285000
b10000 p
13
#1290000
b10 t
1u
b10100001111 C
b10000 ;
b1111111111111111 2
b1111111111111111 D
03
#1295000
b10000 p
13
#1300000
1#
15
b10 4
b10 E
b110 8
b110 F
03
#1305000
0#
b1 Y
b0 T
b10000 ]
b100 \
1c
b10000 p
13
#1310000
b0 8
b0 F
05
03
#1315000
b10 Y
1X
b1 7
b100 \
1_
b10000 p
13
#1320000
03
#1325000
1#
b10 7
b11 Y
b10000 p
13
#1330000
03
#1335000
b10100000000 k
b100 Y
b1111111111111111 T
b1111111111111111 R
b10100000000 )
b10100000000 Q
b10100000000 j
b11 7
b0 g
b1111111111111111 e
1d
b10000 h
b10000 p
13
#1340000
03
#1345000
b100 7
b11000 B
b101 Y
b10000 p
13
#1350000
03
#1355000
1#
b11 Y
b101 7
b10000 b
b10000 p
13
#1360000
03
#1365000
0#
b1 &
b1 V
1'
b10 (
b10 U
b110 Y
b11 7
b10000 h
0d
b10000 p
13
#1370000
03
#1375000
b110 7
b0 Y
1%
b10000 p
13
#1380000
03
#1385000
b0 k
0'
0%
b0 )
b0 Q
b0 j
b0 7
b1101001 ?
b11101110110111101110010011001000010000000110001001101010010000000100000011011000111011101011111011011110111010101110100001111010011000001111000011000110011011001100011011000110010000001100101011110000111000000111101001100000111100001100011001101100110001101100011001000000010100001110101011011100111010001101111011101010110001101101000011001010110010000101001 r
b11101110110111101110010011001000010000000110001001101010010000000100000011011000111011101011111011011110111010101110100001111010011000001111000011000110011011001100011011000110010000001100101011110000111000000111101001100000111100001100011001101100110001101100011001000000010100001110101011011100111010001101111011101010110001101101000011001010110010000101001 6
b10000 ;
b10000 p
13
#1390000
03
#1395000
b10000 p
13
#1400000
b0 t
b10 v
0u
b11000 >
b10000 ;
03
#1405000
b10000 p
13
#1410000
1#
15
b0 4
b0 E
b10 :
b10 G
b101 8
b101 F
03
#1415000
0#
b1 Y
b0 T
b10000 ]
b100 \
1c
b10000 p
13
#1420000
b0 8
b0 F
05
03
#1425000
b10 Y
0X
b10 S
b1 7
b100 \
1_
b10000 p
13
#1430000
03
#1435000
1#
b10 7
b11 Y
b10000 p
13
#1440000
03
#1445000
b1000000000000 k
b100 Y
b10000000 "
b10000000 Z
b10000000 l
1$
b1 T
b1 R
b1000000000000 )
b1000000000000 Q
b1000000000000 j
b11 7
b10000000 g
b1 e
b100000000 f
1d
b10000 h
b10000 p
13
#1450000
03
#1455000
b100 7
b11001 B
b101 Y
b10000 p
13
#1460000
03
#1465000
1#
b11 Y
0$
b101 7
b10000 p
13
#1470000
03
#1475000
b1000000010000 k
b100 Y
1$
b11 T
b10 R
b1000000010000 )
b1000000010000 Q
b1000000010000 j
b11 7
b10000000 g
b10 e
b100000001 f
b1 i
b10000 h
1d
b10000 p
13
#1480000
03
#1485000
b100 7
b11010 B
b101 Y
b10000 p
13
#1490000
03
#1495000
1#
b11 Y
0$
b101 7
b10000 p
13
#1500000
03
#1505000
b1000000100000 k
b100 Y
1$
b111 T
b100 R
b1000000100000 )
b1000000100000 Q
b1000000100000 j
b11 7
b10000000 g
b100 e
b100000010 f
b10000 h
b10 i
1d
b10000 p
13
#1510000
03
#1515000
b100 7
b11011 B
b101 Y
b10000 p
13
#1520000
03
#1525000
1#
b11 Y
0$
b101 7
b10000 p
13
#1530000
03
#1535000
b1000000110000 k
b100 Y
1$
b1111 T
b1000 R
b1000000110000 )
b1000000110000 Q
b1000000110000 j
b11 7
b10000000 g
b1000 e
b100000011 f
b10000 h
b11 i
1d
b10000 p
13
#1540000
03
#1545000
b100 7
b11100 B
b101 Y
b10000 p
13
#1550000
03
#1555000
1#
b11 Y
0$
b101 7
b10000 p
13
#1560000
03
#1565000
b1000001000000 k
b100 Y
1$
b11111 T
b10000 R
b1000001000000 )
b1000001000000 Q
b1000001000000 j
b11 7
b10000000 g
b10000 e
b100000100 f
b10000 h
b100 i
1d
b10000 p
13
#1570000
03
#1575000
b100 7
b11101 B
b101 Y
b10000 p
13
#1580000
03
#1585000
1#
b11 Y
0$
b101 7
b10000 p
13
#1590000
03
#1595000
b1000001010000 k
b100 Y
1$
b111111 T
b100000 R
b1000001010000 )
b1000001010000 Q
b1000001010000 j
b11 7
b10000000 g
b100000 e
b100000101 f
b10000 h
b101 i
1d
b10000 p
13
#1600000
03
#1605000
b100 7
b11110 B
b101 Y
b10000 p
13
#1610000
03
#1615000
1#
b11 Y
0$
b101 7
b10000 p
13
#1620000
03
#1625000
b1000001100000 k
b100 Y
1$
b1111111 T
b1000000 R
b1000001100000 )
b1000001100000 Q
b1000001100000 j
b11 7
b10000000 g
b1000000 e
b100000110 f
b10000 h
b110 i
1d
b10000 p
13
#1630000
03
#1635000
b100 7
b11111 B
b101 Y
b10000 p
13
#1640000
03
#1645000
1#
b11 Y
0$
b101 7
b10000 p
13
#1650000
03
#1655000
b1000001110000 k
b100 Y
1$
b11111111 T
b10000000 R
b1000001110000 )
b1000001110000 Q
b1000001110000 j
b11 7
b10000000 g
b10000000 e
b100000111 f
b10000 h
b111 i
1d
b10000 p
13
#1660000
03
#1665000
b100 7
b100000 B
b101 Y
b10000 p
13
#1670000
03
#1675000
1#
b11 Y
0$
b101 7
b10000 p
13
#1680000
03
#1685000
b1000010000000 k
b100 Y
1$
b111111111 T
b100000000 R
b1000010000000 )
b1000010000000 Q
b1000010000000 j
b11 7
b10000000 g
b100000000 e
b100001000 f
b10000 h
b1000 i
1d
b10000 p
13
#1690000
03
#1695000
b100 7
b100001 B
b101 Y
b10000 p
13
#1700000
03
#1705000
1#
b11 Y
0$
b101 7
b10000 p
13
#1710000
03
#1715000
b1000010010000 k
b100 Y
1$
b1111111111 T
b1000000000 R
b1000010010000 )
b1000010010000 Q
b1000010010000 j
b11 7
b10000000 g
b1000000000 e
b100001001 f
b10000 h
b1001 i
1d
b10000 p
13
#1720000
03
#1725000
b100 7
b100010 B
b101 Y
b10000 p
13
#1730000
03
#1735000
1#
b11 Y
0$
b101 7
b10000 p
13
#1740000
03
#1745000
b1000010100000 k
b100 Y
1$
b11111111111 T
b10000000000 R
b1000010100000 )
b1000010100000 Q
b1000010100000 j
b11 7
b10000000 g
b10000000000 e
b100001010 f
b10000 h
b1010 i
1d
b10000 p
13
#1750000
03
#1755000
b100 7
b100011 B
b101 Y
b10000 p
13
#1760000
03
#1765000
1#
b11 Y
0$
b101 7
b10000 p
13
#1770000
03
#1775000
b1000010110000 k
b100 Y
1$
b111111111111 T
b100000000000 R
b1000010110000 )
b1000010110000 Q
b1000010110000 j
b11 7
b10000000 g
b100000000000 e
b100001011 f
b10000 h
b1011 i
1d
b10000 p
13
#1780000
03
#1785000
b100 7
b100100 B
b101 Y
b10000 p
13
#1790000
03
#1795000
1#
b11 Y
0$
b101 7
b10000 p
13
#1800000
03
#1805000
b1000011000000 k
b100 Y
1$
b1111111111111 T
b1000000000000 R
b1000011000000 )
b1000011000000 Q
b1000011000000 j
b11 7
b10000000 g
b1000000000000 e
b100001100 f
b10000 h
b1100 i
1d
b10000 p
13
#1810000
03
#1815000
b100 7
b100101 B
b101 Y
b10000 p
13
#1820000
03
#1825000
1#
b11 Y
0$
b101 7
b10000 p
13
#1830000
03
#1835000
b1000011010000 k
b100 Y
1$
b11111111111111 T
b10000000000000 R
b1000011010000 )
b1000011010000 Q
b1000011010000 j
b11 7
b10000000 g
b10000000000000 e
b100001101 f
b10000 h
b1101 i
1d
b10000 p
13
#1840000
03
#1845000
b100 7
b100110 B
b101 Y
b10000 p
13
#1850000
03
#1855000
1#
b11 Y
0$
b101 7
b10000 p
13
#1860000
03
#1865000
b1000011100000 k
b100 Y
1$
b111111111111111 T
b100000000000000 R
b1000011100000 )
b1000011100000 Q
b1000011100000 j
b11 7
b10000000 g
b100000000000000 e
b100001110 f
b10000 h
b1110 i
1d
b10000 p
13
#1870000
03
#1875000
b100 7
b100111 B
b101 Y
b10000 p
13
#1880000
03
#1885000
1#
b11 Y
0$
b101 7
b10000 p
13
#1890000
03
#1895000
b1000011110000 k
b100 Y
1$
b1111111111111111 T
b1000000000000000 R
b1000011110000 )
b1000011110000 Q
b1000011110000 j
b11 7
b10000000 g
b1000000000000000 e
b100001111 f
b10000 h
b1111 i
1d
b10000 p
13
#1900000
03
#1905000
b100 7
b101000 B
b101 Y
b10000 p
13
#1910000
03
#1915000
1#
b11 Y
0$
b101 7
b10000 p
13
#1920000
03
