src/tb_warp_mem.vcd
$date
	Tue Jun  9 07:52:00 2026
$end
$version
	Icarus Verilog
$end
$timescale
	1ps
$end
$scope module tb_warp_mem $end
$var wire 16 ! ws_warp_ready_mask [15:0] $end
$var wire 16 " ws_warp_ready [15:0] $end
$var wire 2 # ws_warp_id_to_ms [1:0] $end
$var wire 1 $ ws_done $end
$var wire 2 % ws_current_warp_id [1:0] $end
$var wire 16 & sw_word_mask [15:0] $end
$var wire 2 ' ms_warp_id_to_ws [1:0] $end
$var wire 1 ( ms_stall $end
$var wire 1 ) ms_mem_write $end
$var wire 1 * ms_mem_done $end
$var wire 2 + ms_lw_warp_id [1:0] $end
$var wire 1 , ms_lw_ready $end
$var wire 4 - ms_lw_destination_out [3:0] $end
$var wire 16 . addr_out [15:0] $end
$var parameter 32 / LINE_WORDS $end
$var parameter 3 0 MS_WAIT $end
$var parameter 32 1 OFFSET_BITS $end
$var parameter 4 2 OP_LW $end
$var parameter 4 3 OP_SW $end
$var reg 16 4 active_mask [15:0] $end
$var reg 1 5 clk $end
$var reg 1 6 halt $end
$var reg 4 7 lw_destination [3:0] $end
$var reg 1 8 mem_req $end
$var reg 16 9 pc_before [15:0] $end
$var reg 4 : request [3:0] $end
$var reg 1 ; reset $end
$var integer 32 < errors [31:0] $end
$var integer 32 = k [31:0] $end
$var integer 32 > last_xact_count [31:0] $end
$var integer 32 ? tests [31:0] $end
$var integer 32 @ wut [31:0] $end
$scope module dmem $end
$var wire 1 5 clk $end
$var wire 16 A sw_word_mask [15:0] $end
$var wire 1 ) mem_write $end
$var wire 8 B line_index [7:0] $end
$var wire 16 C addr_base [15:0] $end
$var parameter 32 D INDEX_BITS $end
$var parameter 32 E LINE_WORDS $end
$var parameter 32 F OFFSET_BITS $end
$scope begin bank[0] $end
$var wire 32 G rd_word [31:0] $end
$var parameter 2 H k $end
$scope module u_bank $end
$var wire 8 I A [7:0] $end
$var wire 32 J RD [31:0] $end
$var wire 1 5 clk $end
$var wire 32 K writeData [31:0] $end
$var wire 1 L writeEnable $end
$var parameter 32 M ADDR_WIDTH $end
$var parameter 40 N DEPTH $end
$var integer 32 O i [31:0] $end
$upscope $end
$upscope $end
$scope begin bank[1] $end
$var wire 32 P rd_word [31:0] $end
$var parameter 2 Q k $end
$scope module u_bank $end
$var wire 8 R A [7:0] $end
$var wire 32 S RD [31:0] $end
$var wire 1 5 clk $end
$var wire 32 T writeData [31:0] $end
$var wire 1 U writeEnable $end
$var parameter 32 V ADDR_WIDTH $end
$var parameter 40 W DEPTH $end
$var integer 32 X i [31:0] $end
$upscope $end
$upscope $end
$scope begin bank[2] $end
$var wire 32 Y rd_word [31:0] $end
$var parameter 3 Z k $end
$scope module u_bank $end
$var wire 8 [ A [7:0] $end
$var wire 32 \ RD [31:0] $end
$var wire 1 5 clk $end
$var wire 32 ] writeData [31:0] $end
$var wire 1 ^ writeEnable $end
$var parameter 32 _ ADDR_WIDTH $end
$var parameter 40 ` DEPTH $end
$var integer 32 a i [31:0] $end
$upscope $end
$upscope $end
$scope begin bank[3] $end
$var wire 32 b rd_word [31:0] $end
$var parameter 3 c k $end
$scope module u_bank $end
$var wire 8 d A [7:0] $end
$var wire 32 e RD [31:0] $end
$var wire 1 5 clk $end
$var wire 32 f writeData [31:0] $end
$var wire 1 g writeEnable $end
$var parameter 32 h ADDR_WIDTH $end
$var parameter 40 i DEPTH $end
$var integer 32 j i [31:0] $end
$upscope $end
$upscope $end
$scope begin bank[4] $end
$var wire 32 k rd_word [31:0] $end
$var parameter 4 l k $end
$scope module u_bank $end
$var wire 8 m A [7:0] $end
$var wire 32 n RD [31:0] $end
$var wire 1 5 clk $end
$var wire 32 o writeData [31:0] $end
$var wire 1 p writeEnable $end
$var parameter 32 q ADDR_WIDTH $end
$var parameter 40 r DEPTH $end
$var integer 32 s i [31:0] $end
$upscope $end
$upscope $end
$scope begin bank[5] $end
$var wire 32 t rd_word [31:0] $end
$var parameter 4 u k $end
$scope module u_bank $end
$var wire 8 v A [7:0] $end
$var wire 32 w RD [31:0] $end
$var wire 1 5 clk $end
$var wire 32 x writeData [31:0] $end
$var wire 1 y writeEnable $end
$var parameter 32 z ADDR_WIDTH $end
$var parameter 40 { DEPTH $end
$var integer 32 | i [31:0] $end
$upscope $end
$upscope $end
$scope begin bank[6] $end
$var wire 32 } rd_word [31:0] $end
$var parameter 4 ~ k $end
$scope module u_bank $end
$var wire 8 !" A [7:0] $end
$var wire 32 "" RD [31:0] $end
$var wire 1 5 clk $end
$var wire 32 #" writeData [31:0] $end
$var wire 1 $" writeEnable $end
$var parameter 32 %" ADDR_WIDTH $end
$var parameter 40 &" DEPTH $end
$var integer 32 '" i [31:0] $end
$upscope $end
$upscope $end
$scope begin bank[7] $end
$var wire 32 (" rd_word [31:0] $end
$var parameter 4 )" k $end
$scope module u_bank $end
$var wire 8 *" A [7:0] $end
$var wire 32 +" RD [31:0] $end
$var wire 1 5 clk $end
$var wire 32 ," writeData [31:0] $end
$var wire 1 -" writeEnable $end
$var parameter 32 ." ADDR_WIDTH $end
$var parameter 40 /" DEPTH $end
$var integer 32 0" i [31:0] $end
$upscope $end
$upscope $end
$scope begin bank[8] $end
$var wire 32 1" rd_word [31:0] $end
$var parameter 5 2" k $end
$scope module u_bank $end
$var wire 8 3" A [7:0] $end
$var wire 32 4" RD [31:0] $end
$var wire 1 5 clk $end
$var wire 32 5" writeData [31:0] $end
$var wire 1 6" writeEnable $end
$var parameter 32 7" ADDR_WIDTH $end
$var parameter 40 8" DEPTH $end
$var integer 32 9" i [31:0] $end
$upscope $end
$upscope $end
$scope begin bank[9] $end
$var wire 32 :" rd_word [31:0] $end
$var parameter 5 ;" k $end
$scope module u_bank $end
$var wire 8 <" A [7:0] $end
$var wire 32 =" RD [31:0] $end
$var wire 1 5 clk $end
$var wire 32 >" writeData [31:0] $end
$var wire 1 ?" writeEnable $end
$var parameter 32 @" ADDR_WIDTH $end
$var parameter 40 A" DEPTH $end
$var integer 32 B" i [31:0] $end
$upscope $end
$upscope $end
$scope begin bank[10] $end
$var wire 32 C" rd_word [31:0] $end
$var parameter 5 D" k $end
$scope module u_bank $end
$var wire 8 E" A [7:0] $end
$var wire 32 F" RD [31:0] $end
$var wire 1 5 clk $end
$var wire 32 G" writeData [31:0] $end
$var wire 1 H" writeEnable $end
$var parameter 32 I" ADDR_WIDTH $end
$var parameter 40 J" DEPTH $end
$var integer 32 K" i [31:0] $end
$upscope $end
$upscope $end
$scope begin bank[11] $end
$var wire 32 L" rd_word [31:0] $end
$var parameter 5 M" k $end
$scope module u_bank $end
$var wire 8 N" A [7:0] $end
$var wire 32 O" RD [31:0] $end
$var wire 1 5 clk $end
$var wire 32 P" writeData [31:0] $end
$var wire 1 Q" writeEnable $end
$var parameter 32 R" ADDR_WIDTH $end
$var parameter 40 S" DEPTH $end
$var integer 32 T" i [31:0] $end
$upscope $end
$upscope $end
$scope begin bank[12] $end
$var wire 32 U" rd_word [31:0] $end
$var parameter 5 V" k $end
$scope module u_bank $end
$var wire 8 W" A [7:0] $end
$var wire 32 X" RD [31:0] $end
$var wire 1 5 clk $end
$var wire 32 Y" writeData [31:0] $end
$var wire 1 Z" writeEnable $end
$var parameter 32 [" ADDR_WIDTH $end
$var parameter 40 \" DEPTH $end
$var integer 32 ]" i [31:0] $end
$upscope $end
$upscope $end
$scope begin bank[13] $end
$var wire 32 ^" rd_word [31:0] $end
$var parameter 5 _" k $end
$scope module u_bank $end
$var wire 8 `" A [7:0] $end
$var wire 32 a" RD [31:0] $end
$var wire 1 5 clk $end
$var wire 32 b" writeData [31:0] $end
$var wire 1 c" writeEnable $end
$var parameter 32 d" ADDR_WIDTH $end
$var parameter 40 e" DEPTH $end
$var integer 32 f" i [31:0] $end
$upscope $end
$upscope $end
$scope begin bank[14] $end
$var wire 32 g" rd_word [31:0] $end
$var parameter 5 h" k $end
$scope module u_bank $end
$var wire 8 i" A [7:0] $end
$var wire 32 j" RD [31:0] $end
$var wire 1 5 clk $end
$var wire 32 k" writeData [31:0] $end
$var wire 1 l" writeEnable $end
$var parameter 32 m" ADDR_WIDTH $end
$var parameter 40 n" DEPTH $end
$var integer 32 o" i [31:0] $end
$upscope $end
$upscope $end
$scope begin bank[15] $end
$var wire 32 p" rd_word [31:0] $end
$var parameter 5 q" k $end
$scope module u_bank $end
$var wire 8 r" A [7:0] $end
$var wire 32 s" RD [31:0] $end
$var wire 1 5 clk $end
$var wire 32 t" writeData [31:0] $end
$var wire 1 u" writeEnable $end
$var parameter 32 v" ADDR_WIDTH $end
$var parameter 40 w" DEPTH $end
$var integer 32 x" i [31:0] $end
$upscope $end
$upscope $end
$upscope $end
$scope module ms $end
$var wire 16 y" active_mask [15:0] $end
$var wire 1 5 clk $end
$var wire 4 z" lw_destination [3:0] $end
$var wire 1 8 mem_req $end
$var wire 4 {" request [3:0] $end
$var wire 1 ; reset $end
$var wire 1 ( stall $end
$var wire 2 |" warp_id_from_ws [1:0] $end
$var parameter 3 }" CAPTURE $end
$var parameter 3 ~" DONE $end
$var parameter 3 !# IDLE $end
$var parameter 32 "# LINE_WORDS $end
$var parameter 32 ## OFFSET_BITS $end
$var parameter 3 $# REQ $end
$var parameter 3 %# REQ_CHECK $end
$var parameter 3 &# WAIT $end
$var parameter 3 '# WARP $end
$var reg 16 (# addr_out [15:0] $end
$var reg 16 )# block_members [15:0] $end
$var reg 2 *# current_warp_in_ms [1:0] $end
$var reg 16 +# lane_serviced [15:0] $end
$var reg 4 ,# lw_destination_out [3:0] $end
$var reg 1 , lw_ready $end
$var reg 2 -# lw_warp_id [1:0] $end
$var reg 1 * mem_done $end
$var reg 1 ) mem_write $end
$var reg 2 .# queue_pointer [1:0] $end
$var reg 1 /# request_reg $end
$var reg 3 0# state_curr [2:0] $end
$var reg 16 1# sw_word_mask [15:0] $end
$var reg 2 2# warp_id_to_ws [1:0] $end
$var integer 32 3# i [31:0] $end
$var integer 32 4# j [31:0] $end
$scope begin $unm_blk_21 $end
$var reg 1 5# found $end
$upscope $end
$scope begin $unm_blk_27 $end
$var reg 1 6# found $end
$upscope $end
$scope begin $unm_blk_31 $end
$var reg 1 7# found_warp $end
$upscope $end
$scope begin $unm_blk_35 $end
$var reg 1 8# found $end
$upscope $end
$scope begin $unm_blk_40 $end
$var reg 1 9# found $end
$upscope $end
$scope begin $unm_blk_55 $end
$var integer 32 :# l [31:0] $end
$upscope $end
$scope begin coalesce $end
$var reg 1 ;# found_leader $end
$var reg 16 <# members [15:0] $end
$var reg 12 =# target_seg [11:0] $end
$var reg 16 ># wmask [15:0] $end
$var integer 32 ?# l [31:0] $end
$var integer 32 @# leader [31:0] $end
$upscope $end
$upscope $end
$scope module ws $end
$var wire 1 5 clk $end
$var wire 2 A# current_warp_id [1:0] $end
$var wire 1 $ done $end
$var wire 1 6 halt $end
$var wire 1 B# hold $end
$var wire 1 * mem_done $end
$var wire 1 8 mem_req $end
$var wire 16 C# pc_target [15:0] $end
$var wire 1 D# redirect $end
$var wire 1 ; rst $end
$var wire 1 E# running $end
$var wire 2 F# warp_id_from_ms [1:0] $end
$var wire 2 G# warp_id_to_ms [1:0] $end
$var wire 16 H# warp_ready [15:0] $end
$var wire 16 I# warp_ready_mask [15:0] $end
$var parameter 32 J# NUMBER_OF_WARPS $end
$var parameter 1 K# RUN $end
$var parameter 1 L# SWITCH $end
$var reg 2 M# current_warp [1:0] $end
$var reg 1 N# next_found $end
$var reg 2 O# next_warp [1:0] $end
$var reg 1 P# state_curr $end
$var integer 32 Q# cand [31:0] $end
$var integer 32 R# i [31:0] $end
$var integer 32 S# off [31:0] $end
$upscope $end
$scope task check_int $end
$var reg 256 T# tag [255:0] $end
$var integer 32 U# exp [31:0] $end
$var integer 32 V# got [31:0] $end
$upscope $end
$scope task chk_lw $end
$var reg 16 W# exp [15:0] $end
$var integer 32 X# idx [31:0] $end
$upscope $end
$scope task chk_pc $end
$var reg 16 Y# exp [15:0] $end
$var reg 16 Z# got [15:0] $end
$var reg 256 [# tag [255:0] $end
$upscope $end
$scope task fire_request $end
$var reg 1 \# is_load $end
$var reg 3 ]# prev_state [2:0] $end
$var integer 32 ^# cnt [31:0] $end
$upscope $end
$scope task run_cycles $end
$var integer 32 _# c [31:0] $end
$var integer 32 `# n [31:0] $end
$upscope $end
$upscope $end
$enddefinitions $end
$comment Show the parameter values. $end
$dumpall
1L#
0K#
b100 J#
b1 '#
b100 &#
b10 %#
b11 $#
b100 ##
b10000 "#
b0 !#
b110 ~"
b101 }"
b100000000 w"
b1000 v"
b1111 q"
b100000000 n"
b1000 m"
b1110 h"
b100000000 e"
b1000 d"
b1101 _"
b100000000 \"
b1000 ["
b1100 V"
b100000000 S"
b1000 R"
b1011 M"
b100000000 J"
b1000 I"
b1010 D"
b100000000 A"
b1000 @"
b1001 ;"
b100000000 8"
b1000 7"
b1000 2"
b100000000 /"
b1000 ."
b111 )"
b100000000 &"
b1000 %"
b110 ~
b100000000 {
b1000 z
b101 u
b100000000 r
b1000 q
b100 l
b100000000 i
b1000 h
b11 c
b100000000 `
b1000 _
b10 Z
b100000000 W
b1000 V
b1 Q
b100000000 N
b1000 M
b0 H
b100 F
b10000 E
b1000 D
b111 3
b110 2
b100 1
b100 0
b10000 /
$end
#0
$dumpvars
bx `#
bx _#
bx ^#
bx ]#
x\#
bx [#
bx Z#
bx Y#
bx X#
bx W#
bx V#
bx U#
bx T#
bx S#
bx R#
bx Q#
xP#
bx O#
xN#
bx M#
bx I#
bx H#
bx G#
bx F#
xE#
zD#
bz C#
zB#
bx A#
bx @#
bx ?#
bx >#
bx =#
bx <#
x;#
bx :#
x9#
x8#
x7#
x6#
x5#
bx 4#
bx 3#
bx 2#
bx 1#
bx 0#
x/#
bx .#
bx -#
bx ,#
bx +#
bx *#
bx )#
bx (#
bx |"
b110 {"
b101 z"
b1111111111111111 y"
b100000000 x"
xu"
b0xxxxxxxxxxxxxxxx t"
bx s"
bx r"
bx p"
b100000000 o"
xl"
b0xxxxxxxxxxxxxxxx k"
bx j"
bx i"
bx g"
b100000000 f"
xc"
b0xxxxxxxxxxxxxxxx b"
bx a"
bx `"
bx ^"
b100000000 ]"
xZ"
b0xxxxxxxxxxxxxxxx Y"
bx X"
bx W"
bx U"
b100000000 T"
xQ"
b0xxxxxxxxxxxxxxxx P"
bx O"
bx N"
bx L"
b100000000 K"
xH"
b0xxxxxxxxxxxxxxxx G"
bx F"
bx E"
bx C"
b100000000 B"
x?"
b0xxxxxxxxxxxxxxxx >"
bx ="
bx <"
bx :"
b100000000 9"
x6"
b0xxxxxxxxxxxxxxxx 5"
bx 4"
bx 3"
bx 1"
b100000000 0"
x-"
b0xxxxxxxxxxxxxxxx ,"
bx +"
bx *"
bx ("
b100000000 '"
x$"
b0xxxxxxxxxxxxxxxx #"
bx ""
bx !"
bx }
b100000000 |
xy
b0xxxxxxxxxxxxxxxx x
bx w
bx v
bx t
b100000000 s
xp
b0xxxxxxxxxxxxxxxx o
bx n
bx m
bx k
b100000000 j
xg
b0xxxxxxxxxxxxxxxx f
bx e
bx d
bx b
b100000000 a
x^
b0xxxxxxxxxxxxxxxx ]
bx \
bx [
bx Y
b100000000 X
xU
b0xxxxxxxxxxxxxxxx T
bx S
bx R
bx P
b100000000 O
xL
b0xxxxxxxxxxxxxxxx K
bx J
bx I
bx G
bx C
bx B
bx A
bx @
b0 ?
bx >
b10000 =
b0 <
1;
b110 :
bx 9
08
b101 7
06
05
b1111111111111111 4
bx .
bx -
x,
bx +
x*
x)
x(
bx '
bx &
bx %
x$
bx #
bx "
bx !
$end
#5000
0(
1E#
0$
0u"
0l"
0c"
0Z"
0Q"
0H"
0?"
06"
0-"
0$"
0y
0p
0g
0^
0U
0L
b0 G
b0 J
b0 P
b0 S
b0 Y
b0 \
b0 b
b0 e
b0 k
b0 n
b0 t
b0 w
b0 }
b0 ""
b0 ("
b0 +"
b0 1"
b0 4"
b0 :"
b0 ="
b0 C"
b0 F"
b0 L"
b0 O"
b0 U"
b0 X"
b0 ^"
b0 a"
b0 g"
b0 j"
b0 p"
b0 s"
b0 B
b0 I
b0 R
b0 [
b0 d
b0 m
b0 v
b0 !"
b0 *"
b0 3"
b0 <"
b0 E"
b0 N"
b0 W"
b0 `"
b0 i"
b0 r"
0P#
b0 "
b0 H#
b1111111111111111 !
b1111111111111111 I#
b0 %
b0 A#
b0 #
b0 |"
b0 G#
b0 M#
b0 t"
b0 k"
b0 b"
b0 Y"
b0 P"
b0 G"
b0 >"
b0 5"
b0 ,"
b0 #"
b0 x
b0 o
b0 f
b0 ]
b0 T
b0 K
b0 &
b0 A
b0 1#
b0 )#
b0 +#
b0 -
b0 ,#
b0 .#
b0 *#
b0 '
b0 2#
b0 F#
0*
0,
b0 +
b0 -#
0/#
0)
b0 .
b0 C
b0 (#
b0 0#
b100 R#
b10000 4#
b100 3#
15
#10000
05
#15000
b10000 4#
b100 3#
b100 R#
15
#20000
05
#25000
b100 R#
b10000 4#
b100 3#
15
#30000
05
#35000
b10000 4#
b100 3#
b100 R#
15
#40000
b0 _#
b100 `#
b0 U#
b0 V#
b1100100011011110110111001100101 T#
b110 ?
b110000 Y#
b110000 Z#
b1010111010000010101001001010000010111110101000001000011010110110011001101011101 [#
0;
05
#45000
bx "
bx H#
15
#50000
b1 _#
05
#55000
15
#60000
b10 _#
05
#65000
15
#70000
b11 _#
05
#75000
15
#80000
b111 :
b111 {"
0\#
b10000 =
b11100110111010001101001011011000110110000100000011101110110000101110010011100000010000000110000 T#
b1 <
b1000 ?
b100 Y#
bx Z#
b1010111010000010101001001010000010111110101000001000011010110110011000001011101001000000110000101100110011101000110010101110010001000000011010000100000011000110111100101100011 [#
b100 _#
05
#85000
15
#90000
1(
18
05
#95000
0(
0E#
b1 0#
1P#
b10000 4#
b100 3#
15#
15
#100000
b1 ]#
b0 ^#
08
05
#105000
1E#
b10 0#
0P#
b10000 "
b10000 H#
b1 %
b1 A#
b1 #
b1 |"
b1 G#
b1 M#
b100 3#
17#
b0 Q#
b101 S#
b1 O#
1N#
15
#110000
b10 ]#
05
#115000
1(
bx "
bx H#
b11 0#
15
#120000
b11 ]#
05
#125000
1u"
1l"
1c"
1Z"
1Q"
1H"
1?"
16"
1-"
1$"
1y
1p
1g
1^
1U
1L
b10 B
b10 I
b10 R
b10 [
b10 d
b10 m
b10 v
b10 !"
b10 *"
b10 3"
b10 <"
b10 E"
b10 N"
b10 W"
b10 `"
b10 i"
b10 r"
b100 0#
b1111111111111111 &
b1111111111111111 A
b1111111111111111 1#
b1010000000001111 t"
b1010000000001110 k"
b1010000000001101 b"
b1010000000001100 Y"
b1010000000001011 P"
b1010000000001010 G"
b1010000000001001 >"
b1010000000001000 5"
b1010000000000111 ,"
b1010000000000110 #"
b1010000000000101 x
b1010000000000100 o
b1010000000000011 f
b1010000000000010 ]
b1010000000000001 T
b1010000000000000 K
1)
b1111111111111111 +#
b1111111111111111 )#
b100000 .
b100000 C
b100000 (#
b1111111111111111 >#
b1111111111111111 <#
b10 =#
b10000 ?#
b0 @#
1;#
15
#130000
b100 ]#
b1 ^#
05
#135000
b1010000000001111 p"
b1010000000001111 s"
b1010000000001110 g"
b1010000000001110 j"
b1010000000001101 ^"
b1010000000001101 a"
b1010000000001100 U"
b1010000000001100 X"
b1010000000001011 L"
b1010000000001011 O"
b1010000000001010 C"
b1010000000001010 F"
b1010000000001001 :"
b1010000000001001 ="
b1010000000001000 1"
b1010000000001000 4"
b1010000000000111 ("
b1010000000000111 +"
b1010000000000110 }
b1010000000000110 ""
b1010000000000101 t
b1010000000000101 w
b1010000000000100 k
b1010000000000100 n
b1010000000000011 b
b1010000000000011 e
b1010000000000010 Y
b1010000000000010 \
b1010000000000001 P
b1010000000000001 S
b1010000000000000 G
b1010000000000000 J
b101 0#
15
#140000
b101 ]#
05
#145000
1(
0u"
0l"
0c"
0Z"
0Q"
0H"
0?"
06"
0-"
0$"
0y
0p
0g
0^
0U
0L
b11 0#
0)
15
#150000
b11 ]#
05
#155000
0(
b110 0#
b10000 ?#
0;#
15
#160000
b110 ]#
05
#165000
b0 0#
1*
15
#170000
b1 >
b0 ]#
05
#175000
b0 G
b0 J
b0 P
b0 S
b0 Y
b0 \
b0 b
b0 e
b0 k
b0 n
b0 t
b0 w
b0 }
b0 ""
b0 ("
b0 +"
b0 1"
b0 4"
b0 :"
b0 ="
b0 C"
b0 F"
b0 L"
b0 O"
b0 U"
b0 X"
b0 ^"
b0 a"
b0 g"
b0 j"
b0 p"
b0 s"
b0 B
b0 I
b0 R
b0 [
b0 d
b0 m
b0 v
b0 !"
b0 *"
b0 3"
b0 <"
b0 E"
b0 N"
b0 W"
b0 `"
b0 i"
b0 r"
0*
b0 &
b0 A
b0 1#
b0 .
b0 C
b0 (#
15
#180000
b110 :
b110 {"
1\#
b10000 =
b1001 ?
b1 U#
b1 V#
b10101000011000100100000011100110111010001101111011100100110010100100000011101000111001001100001011011100111001101100001011000110111010001101001011011110110111001110011 T#
05
#185000
15
#190000
1(
18
05
#195000
0(
0E#
b1 0#
b0 +#
1P#
b10000 4#
b100 3#
15#
15
#200000
b1 ]#
b0 ^#
08
05
#205000
1E#
b10 0#
1/#
b1 *#
0P#
b100000 "
b100000 H#
b10 %
b10 A#
b10 #
b10 |"
b10 G#
b10 M#
b100 3#
17#
b10 O#
b1 Q#
b101 S#
1N#
15
#210000
b10 ]#
05
#215000
1(
bx "
bx H#
b11 0#
15
#220000
b11 ]#
05
#225000
b1010000000000000 G
b1010000000000000 J
b1010000000000001 P
b1010000000000001 S
b1010000000000010 Y
b1010000000000010 \
b1010000000000011 b
b1010000000000011 e
b1010000000000100 k
b1010000000000100 n
b1010000000000101 t
b1010000000000101 w
b1010000000000110 }
b1010000000000110 ""
b1010000000000111 ("
b1010000000000111 +"
b1010000000001000 1"
b1010000000001000 4"
b1010000000001001 :"
b1010000000001001 ="
b1010000000001010 C"
b1010000000001010 F"
b1010000000001011 L"
b1010000000001011 O"
b1010000000001100 U"
b1010000000001100 X"
b1010000000001101 ^"
b1010000000001101 a"
b1010000000001110 g"
b1010000000001110 j"
b1010000000001111 p"
b1010000000001111 s"
b10 B
b10 I
b10 R
b10 [
b10 d
b10 m
b10 v
b10 !"
b10 *"
b10 3"
b10 <"
b10 E"
b10 N"
b10 W"
b10 `"
b10 i"
b10 r"
b100 0#
b1111111111111111 +#
b100000 .
b100000 C
b100000 (#
b0 >#
b1111111111111111 <#
1;#
b10000 ?#
15
#230000
b100 ]#
b1 ^#
05
#235000
b101 0#
15
#240000
b101 ]#
05
#245000
1(
b11 0#
b10000 :#
15
#250000
b11 ]#
05
#255000
0(
b1 +
b1 -#
1,
b101 -
b101 ,#
b110 0#
b10000 ?#
0;#
15
#260000
b110 ]#
05
#265000
b1 '
b1 2#
b1 F#
b0 0#
1*
15
#270000
b0 ]#
05
#275000
b0 G
b0 J
b0 P
b0 S
b0 Y
b0 \
b0 b
b0 e
b0 k
b0 n
b0 t
b0 w
b0 }
b0 ""
b0 ("
b0 +"
b0 1"
b0 4"
b0 :"
b0 ="
b0 C"
b0 F"
b0 L"
b0 O"
b0 U"
b0 X"
b0 ^"
b0 a"
b0 g"
b0 j"
b0 p"
b0 s"
b0 B
b0 I
b0 R
b0 [
b0 d
b0 m
b0 v
b0 !"
b0 *"
b0 3"
b0 <"
b0 E"
b0 N"
b0 W"
b0 `"
b0 i"
b0 r"
0,
0*
b0 .
b0 C
b0 (#
15
#280000
1(
18
b10 @
b1010000000001111 W#
b1111 X#
b10000 =
b11010 ?
b101010000110001001000000110110001101111011000010110010000100000011101000111001001100001011011100111001101100001011000110111010001101001011011110110111001110011 T#
05
#285000
0(
0E#
b1 0#
b0 +#
1P#
b10000 4#
b100 3#
15#
15
#290000
08
05
#295000
1E#
b10 0#
b10 *#
0P#
b110000 "
b110000 H#
b11 %
b11 A#
b11 #
b11 |"
b11 G#
b11 M#
b100 3#
17#
b11 O#
b10 Q#
b101 S#
1N#
15
#300000
05
#305000
1(
bx "
bx H#
b11 0#
15
#310000
b11100 ?
b11101110110000101110010011100000010000001110011011101000110000101101100011011000110010101100100 T#
05
#315000
b1010000000000000 G
b1010000000000000 J
b1010000000000001 P
b1010000000000001 S
b1010000000000010 Y
b1010000000000010 \
b1010000000000011 b
b1010000000000011 e
b1010000000000100 k
b1010000000000100 n
b1010000000000101 t
b1010000000000101 w
b1010000000000110 }
b1010000000000110 ""
b1010000000000111 ("
b1010000000000111 +"
b1010000000001000 1"
b1010000000001000 4"
b1010000000001001 :"
b1010000000001001 ="
b1010000000001010 C"
b1010000000001010 F"
b1010000000001011 L"
b1010000000001011 O"
b1010000000001100 U"
b1010000000001100 X"
b1010000000001101 ^"
b1010000000001101 a"
b1010000000001110 g"
b1010000000001110 j"
b1010000000001111 p"
b1010000000001111 s"
b10 B
b10 I
b10 R
b10 [
b10 d
b10 m
b10 v
b10 !"
b10 *"
b10 3"
b10 <"
b10 E"
b10 N"
b10 W"
b10 `"
b10 i"
b10 r"
b100 0#
b1111111111111111 +#
b100000 .
b100000 C
b100000 (#
b1111111111111111 <#
1;#
b10000 ?#
15
#320000
05
#325000
b101 0#
15
#330000
05
#335000
1(
b11 0#
b10000 :#
15
#340000
05
#345000
0(
b10 +
b10 -#
1,
b110 0#
b10000 ?#
0;#
15
#350000
05
#355000
b10 '
b10 2#
b10 F#
b0 0#
1*
15
#360000
b10 U#
b10 V#
b1101100011101110101111101110111011000010111001001110000010111110110100101100100 T#
b101110 ?
b1010000000001111 W#
b1111 X#
b10000 =
05
#365000
b0 G
b0 J
b0 P
b0 S
b0 Y
b0 \
b0 b
b0 e
b0 k
b0 n
b0 t
b0 w
b0 }
b0 ""
b0 ("
b0 +"
b0 1"
b0 4"
b0 :"
b0 ="
b0 C"
b0 F"
b0 L"
b0 O"
b0 U"
b0 X"
b0 ^"
b0 a"
b0 g"
b0 j"
b0 p"
b0 s"
b0 B
b0 I
b0 R
b0 [
b0 d
b0 m
b0 v
b0 !"
b0 *"
b0 3"
b0 <"
b0 E"
b0 N"
b0 W"
b0 `"
b0 i"
b0 r"
0,
0*
b0 .
b0 C
b0 (#
15
#370000
b111 :
b111 {"
0\#
b10000 =
bx Y#
b11101110110000101110010011100000010000001010000010000110010000001110011011101000110010101110000011100000110010101100100001000000010101100110001 [#
b110000 ?
b0 U#
b0 V#
b11101110110000101110010011100000010000001110101011011100010110101110011011101000110000101101100011011000110010101100100 T#
05
#375000
15
#380000
1(
18
05
#385000
0(
0E#
b1 0#
b0 +#
1P#
b10000 4#
b100 3#
15#
15
#390000
b1 ]#
b0 ^#
08
05
#395000
1E#
b10 0#
0/#
b11 *#
0P#
b0 %
b0 A#
b0 #
b0 |"
b0 G#
b0 M#
b100 3#
17#
b0 O#
b11 Q#
b101 S#
1N#
15
#400000
b10 ]#
05
#405000
1(
b11 0#
15
#410000
b11 ]#
05
#415000
1L
b100 0#
b1 &
b1 A
b1 1#
b1011000000000000 K
1)
b1 +#
b1 )#
b1 >#
b1 <#
b0 =#
1;#
b10000 ?#
15
#420000
b100 ]#
b1 ^#
05
#425000
b1011000000000000 G
b1011000000000000 J
b101 0#
15
#430000
b101 ]#
05
#435000
1(
0L
b11 0#
0)
15
#440000
b11 ]#
05
#445000
1L
b0 G
b0 J
b1 B
b1 I
b1 R
b1 [
b1 d
b1 m
b1 v
b1 !"
b1 *"
b1 3"
b1 <"
b1 E"
b1 N"
b1 W"
b1 `"
b1 i"
b1 r"
b100 0#
b1011000000000001 K
1)
b11 +#
b10 )#
b10000 .
b10000 C
b10000 (#
b1 >#
b10 <#
b1 =#
b1 @#
b10000 ?#
1;#
15
#450000
b100 ]#
b10 ^#
05
#455000
b1011000000000001 G
b1011000000000001 J
b101 0#
15
#460000
b101 ]#
05
#465000
1(
0L
b11 0#
0)
15
#470000
b11 ]#
05
#475000
1L
b1010000000000000 G
b1010000000000000 J
b1010000000000001 P
b1010000000000001 S
b1010000000000010 Y
b1010000000000010 \
b1010000000000011 b
b1010000000000011 e
b1010000000000100 k
b1010000000000100 n
b1010000000000101 t
b1010000000000101 w
b1010000000000110 }
b1010000000000110 ""
b1010000000000111 ("
b1010000000000111 +"
b1010000000001000 1"
b1010000000001000 4"
b1010000000001001 :"
b1010000000001001 ="
b1010000000001010 C"
b1010000000001010 F"
b1010000000001011 L"
b1010000000001011 O"
b1010000000001100 U"
b1010000000001100 X"
b1010000000001101 ^"
b1010000000001101 a"
b1010000000001110 g"
b1010000000001110 j"
b1010000000001111 p"
b1010000000001111 s"
b10 B
b10 I
b10 R
b10 [
b10 d
b10 m
b10 v
b10 !"
b10 *"
b10 3"
b10 <"
b10 E"
b10 N"
b10 W"
b10 `"
b10 i"
b10 r"
b100 0#
b1011000000000010 K
1)
b111 +#
b100 )#
b100000 .
b100000 C
b100000 (#
b1 >#
b100 <#
b10 =#
b10000 ?#
b10 @#
1;#
15
#480000
b100 ]#
b11 ^#
05
#485000
b1011000000000010 G
b1011000000000010 J
b101 0#
15
#490000
b101 ]#
05
#495000
1(
0L
b11 0#
0)
15
#500000
b11 ]#
05
